*** Darwin 8x8 ***
Turn = 0.
  01234567
0 f.......
1 ........
2 ........
3 ...hh...
4 ...hh...
5 ........
6 ........
7 .......f

Turn = 1.
  01234567
0 f.......
1 ........
2 ...h....
3 .....h..
4 ..h.....
5 ....h...
6 ........
7 .......f

Turn = 2.
  01234567
0 f.......
1 ...h....
2 ........
3 ......h.
4 .h......
5 ........
6 ....h...
7 .......f

Turn = 3.
  01234567
0 f..h....
1 ........
2 ........
3 .......h
4 h.......
5 ........
6 ........
7 ....h..f

Turn = 4.
  01234567
0 f..h....
1 ........
2 ........
3 .......h
4 h.......
5 ........
6 ........
7 ....h..f

Turn = 5.
  01234567
0 f..h....
1 ........
2 ........
3 .......h
4 h.......
5 ........
6 ........
7 ....h..f

*** Darwin 7x9 ***
Turn = 0.
  012345678
0 t........
1 .........
2 .........
3 ..h......
4 .........
5 ....r....
6 ........t

Turn = 1.
  012345678
0 t........
1 .........
2 .........
3 ...h.....
4 ....r....
5 .........
6 ........t

Turn = 2.
  012345678
0 t........
1 .........
2 .........
3 ....r....
4 ....r....
5 .........
6 ........t

Turn = 3.
  012345678
0 t........
1 .........
2 .........
3 ....rr...
4 .........
5 .........
6 ........t

Turn = 4.
  012345678
0 t........
1 .........
2 ....r....
3 ......r..
4 .........
5 .........
6 ........t

Turn = 5.
  012345678
0 t........
1 ....r....
2 .........
3 .......r.
4 .........
5 .........
6 ........t

*** Darwin 5x5 ***
Turn = 0.
  01234
0 fffff
1 fffft
2 fffff
3 fffff
4 fffff

Turn = 1.
  01234
0 fffff
1 fffft
2 fffff
3 fffff
4 fffff

*** Darwin 5x5 ***
Turn = 0.
  01234
0 f....
1 .....
2 r...f
3 .....
4 .....

Turn = 10.
  01234
0 f....
1 ...r.
2 ....r
3 .....
4 .....

Turn = 20.
  01234
0 f...r
1 .....
2 .....
3 .....
4 r....

*** Darwin 50x50 ***
Turn = 0.
  01234567890123456789012345678901234567890123456789
0 ..................................................
1 ..................................................
2 ..................................................
3 ..................................................
4 ..................................................
5 ..................................................
6 ..................................................
7 ..................................................
8 ..................................................
9 ..................................................
0 ..................................................
1 ..................................................
2 ..................................................
3 ..................................................
4 ..................................................
5 ..................................................
6 ..................................................
7 ..................................................
8 ..................................................
9 ..................................................
0 ..................................................
1 ..................................................
2 ..................................................
3 ..................................................
4 ..................................................
5 ..................................................
6 ..................................................
7 ..................................................
8 ..................................................
9 ..................................................
0 ..................................................
1 ..................................................
2 ..................................................
3 ..................................................
4 ..................................................
5 ..................................................
6 ..................................................
7 ..................................................
8 ..................................................
9 ..................................................
0 ..................................................
1 ..................................................
2 ..................................................
3 ..................................................
4 ..................................................
5 ..................................................
6 ..................................................
7 ..................................................
8 ..................................................
9 ..................................................

*** Darwin 50x50 ***
Turn = 0.
  01234567890123456789012345678901234567890123456789
0 .....t..............................t.............
1 ..............................r...................
2 ......t..........................................t
3 .r.................r..............................
4 .............t....t.................t............r
5 .t..t....................r..t..........t..........
6 .t.....................r.........r......t.........
7 ..................................................
8 ...............rt............................r....
9 .........t.............t...r...t....r.............
0 .............t............................t.......
1 ....t.....t.......r...........t...........r.......
2 ....................r..rt..r......................
3 .......r..........t...t...r...........t...........
4 .................r..........r.....................
5 ....................r..................r..........
6 ..................................................
7 .r....r......................r.....r......r...t...
8 .....................t......r................r....
9 .................t......r.......t...t............t
0 ..................r.....t........t..t.............
1 ....tt...........t.r..............................
2 t.......r......t...t.....t..t.......r............t
3 ..........................t....t..................
4 ..............r......r...............t..t..t.r....
5 .......r...........................t..............
6 ....t....t......t.r.........r.......r.....t.......
7 t..............r..................................
8 .....t...............r.......r........t...........
9 t.r...............tt...r..........t..rr...........
0 ..................................t...............
1 .................r.......r....t...................
2 .r...t..t.r..................rr..............r....
3 ....................................r.......t.....
4 ........t.....r......t.....rr........r..t.........
5 ...........................................r......
6 .....r.t..t....r.........................rr.......
7 ......r.r...t...............r.....................
8 ..................................r...............
9 ...........tr.....................................
0 .........r.......t....t...r..r....t.......t..t...t
1 r.............................r...................
2 ..............t...t...t..............t............
3 r....tr....r.t.....................r.....r........
4 ..t.t..............r......t............rt.........
5 ......t.............r.............................
6 .r................t....r.....r.t..................
7 ..rr...t.............r............................
8 ...........t.t........t.r...............t.........
9 .....................r.........t...........t..t...

Turn = 25.
  01234567890123456789012345678901234567890123456789
0 r......r..r...r..........r..rr....r....r.....rr...
1 r.....r..r..................r.r...................
2 ...r......r.............r...r........r............
3 ...r...........r...r.r............................
4 ..r.......r..t....t.........r.....................
5 .t..t......r......tt........r.......rr...........r
6 .t...................................rr...........
7 .t...........................r...............r....
8 ................t......r.r....rt..................
9 .........r.r..r........t.......t..................
0 .............t.........t......t...................
1 ....t.....t....r.......t......t.........rr........
2 ........................tt....t..........r........
3 ..................tt..t.t.....r...................
4 ..................tt..............................
5 ..................................................
6 ..............................r...................
7 ..............................................t...
8 ..................................................
9 .......r.........t..............t...t..rr....r...r
0 ........................t........t..t.............
1 ....ttt................r............t............t
2 t....tt...........ttt.......t.......ttt..........t
3 .........r..............r.tttt.t....t.............
4 .................rr..........t.....r....tt.t......
5 ..................................r........t......
6 r...tt...t......t..........................t......
7 r...........................r.....................
8 ....................rrr...........................
9 tt................ttrr............................
0 .t.........r......t.r.............................
1 .t....r...........................................
2 ........t........................................r
3 ............................................t.....
4 ......r.tr..............................t.........
5 ........tt........................................
6 .......t..tt......................................
7 ...........t......................................
8 ..................................................
9 ..................................................
0 r................t....t...........tt......t..t...t
1 ..................................................
2 ..............t...t...t..............tr...........
3 .....t.......t....................................
4 ..t.t.....................t.............t.........
5 ..t...t...........................................
6 ..................t............t..................
7 .......t..........................................
8 ...........t.t........t.................t.........
9 ...................r...........t...........t..t...

Turn = 50.
  01234567890123456789012345678901234567890123456789
0 ..r.........rr......rr.......rrr.r......r.r.......
1 .r..................r.r.......r...................
2 ........................r.........................
3 ............................rr...................r
4 ..........................r....r..................
5 .ttttrr..............r............................
6 tt................................................
7 .t.............................r..........r.......
8 rr......................................r......r..
9 .r..............r......................r..........
0 .............tr.........r.........................
1 r................r........r.......................
2 r..........r........tt.............r..............
3 ........r.........tttt....r.r....r..............r.
4 ....r.............tt......r....r..rr..r..r........
5 ..................t..............................r
6 ..................................................
7 ...................r...........r..............t...
8 ...............r..............r..r..r...r.........
9 ..............r..tt.............t....t...........r
0 .................r.............r....r.............
1 .r...tt.............................t.............
2 r...ttt.........r.rtt......rr.......ttt...........
3 ..........r......r.......rr..t.tt..........t......
4 r.............r.............r..............t......
5 r.........................................tt......
6 .........r..........r............rr........t......
7 .................t.........r........rr............
8 ...r.............................r................
9 tt..................t......r......................
0 .t.............r....t............................r
1 .tt...............................................
2 ........t.........................................
3 ......r......................r..............t.....
4 ........tt..............................t.........
5 .........t........................................
6 ..........tt......................................
7 ...........t......................................
8 ..................................................
9 ...................................t..............
0 .................t....t...........tt......ttt.....
1 ..................................................
2 ..............t...t...t..............t............
3 .....t.......t...................................r
4 ..t.t.....................t.............t.........
5 ..t...t..........................................r
6 ............r.....tr...........t..................
7 r..........t......................................
8 ...........t.t........t.................t.........
9 .r..rr.........................tt..........t..t...

*** Darwin 10x10 ***
Turn = 0.
  0123456789
0 ..rtrfhttt
1 trffhr.fr.
2 .ff.h.rh.f
3 ffht.fh.h.
4 rf.fthrrfh
5 trr.frrffh
6 hrthrt.rfh
7 .hr.hhr..f
8 .f.hrthrfr
9 hrftr.htt.

Turn = 25.
  0123456789
0 tt.ttt..tt
1 ttttt...tt
2 trtttttrrr
3 rrttttt...
4 rrrtttt.tt
5 rrtttttttt
6 rr..tttttt
7 ..rr.ttttt
8 r.....tt.r
9 rrrrr.trrr

Turn = 50.
  0123456789
0 tt.ttt..tt
1 ttttt...tt
2 tttttttttt
3 ttttttt...
4 ttttttt.tt
5 rttttttttt
6 .ttttttttt
7 .tt.tttttt
8 .....ttt.t
9 ...rrrrttt

*** Darwin 10x10 ***
Turn = 0.
  0123456789
0 r.ffffffff
1 ffffff.ff.
2 .ff.f.ff.f
3 ffff.ff.f.
4 ff.fffffff
5 fff.ffffff
6 ffffff.fff
7 .ff.fff..f
8 .f.fffffff
9 fffff.fff.

Turn = 3.
  0123456789
0 ..ffffffff
1 rfffff.ff.
2 rff.frff.f
3 rr.rr.f.f.
4 ff.fffffff
5 fff.ffffff
6 ffffff.fff
7 .ff.fff..f
8 .f.fffffff
9 fffff.fff.

Turn = 6.
  0123456789
0 r.ffffffff
1 rrrrrr.ff.
2 .rfrfrr.rf
3 rr...rr.f.
4 r.rfff.fff
5 .ff.ffrfff
6 rfffffrfff
7 .ff.ff.r.f
8 rf.fffffff
9 fffff.fff.

Turn = 9.
  0123456789
0 r.frrrfffr
1 rrr.rr.ffr
2 .rrrrr...r
3 r.rrrr.rf.
4 .r.rr.rfff
5 .rf.rrrfff
6 rfffrr.fff
7 rrf.rrr.rr
8 rr.frr.ff.
9 rrffrrfffr

Turn = 12.
  0123456789
0 rrrrr.rrrr
1 .rrr.rrrfr
2 .rrrr.r...
3 r.rr.rrrrr
4 .rrr.rrrrr
5 r.r.rrrr.r
6 .rrrrr.fff
7 rrrr.r.r.r
8 rrrr.rrrrr
9 rrrfrrfrrr

Turn = 15.
  0123456789
0 .rrr..rrrr
1 rrrrr.rrrr
2 rrrrrr.rr.
3 ..rr.rrr.r
4 rr.rr...r.
5 rrrrrrrrrr
6 rrrrr.rrrr
7 rrrrrr.r.r
8 rrrrr..rrr
9 r.rrrrrrrr
